Notas de la clase 3
…
Rows: 16656 Columns: 88
── Column specification ────────────────────────────────────────────────────────
Delimiter: ";"
chr  (6): CODUSU, MAS_500, IV1_ESP, IV3_ESP, II7_ESP, II8_ESP
dbl (80): ANO4, TRIMESTRE, NRO_HOGAR, REALIZADA, REGION, AGLOMERADO, PONDERA...
num  (1): IPCF
lgl  (1): IV7_ESP

ℹ Use `spec()` to retrieve the full column specification for this data.
ℹ Specify the column types or set `show_col_types = FALSE` to quiet this message.

problemas <- problems(my_data)
print(problemas)

# A tibble: 29 × 5
     row   col expected           actual                                   file 
   <int> <int> <chr>              <chr>                                    <chr>
 1   243    19 1/0/T/F/TRUE/FALSE "LE PIDE AGUA A LA TIA QUE VIVE CERCA"   /clo…
 2   505    19 1/0/T/F/TRUE/FALSE "trae agua por ca&ntilde;os aereos desd… /clo…
 3   670    19 1/0/T/F/TRUE/FALSE "no est&aacute; conectada cruza una man… /clo…
 4  1093    19 1/0/T/F/TRUE/FALSE "camion cisterna le llena el tanque"     /clo…
 5  1094    19 1/0/T/F/TRUE/FALSE "riachuelo"                              /clo…
 6  1609    19 1/0/T/F/TRUE/FALSE "de otra vivienda"                       /clo…
 7  1785    19 1/0/T/F/TRUE/FALSE "SALADA, CONTAMINADA"                    /clo…
 8  2328    19 1/0/T/F/TRUE/FALSE "CAMION CISTERNA "                       /clo…
 9  2420    19 1/0/T/F/TRUE/FALSE "COOPERATIVA DE AGUA VILLA ALLENDE"      /clo…
10  2579    19 1/0/T/F/TRUE/FALSE "POZO"                                   /clo…
# ℹ 19 more rows
…
